Section 02 Data wrangling and quick plots
…
##   year  month decimal_date    co2 quality
## 1 1958  March     1958.203 315.70       1
## 2 1958  April     1958.288 317.45       1
## 3 1958    May     1958.370 317.51       1
## 4 1958   June     1958.455 -99.99       0
## 5 1958   July     1958.537 315.86       1
## 6 1958 August     1958.622 314.93       1

You can coerce a data.frame to a tibble using the as_tibble() function:

Keeling_Data_tbl <- as_tibble(Keeling_Data)
Keeling_Data_tbl

## # A tibble: 767 x 5
##     year month     decimal_date   co2 quality
##    <int> <chr>            <dbl> <dbl>   <int>
##  1  1958 March            1958.  316.       1
##  2  1958 April            1958.  317.       1
##  3  1958 May              1958.  318.       1
##  4  1958 June             1958. -100.       0
##  5  1958 July             1959.  316.       1
##  6  1958 August           1959.  315.       1
##  7  1958 September        1959.  313.       1
##  8  1958 October          1959. -100.       0
##  9  1958 November         1959.  313.       1
## 10  1958 December         1959.  315.       1
## # ... with 757 more rows
…
There’s a specific advantage to placing variables in columns because it allows R’s vectorized nature to shine. That makes transforming tidy data feel particularly natural. tidyr, dplyr, and ggplot2 are designed to work with tidy data.

The dplyr package

The dplyr package provides a number of very useful functions for manipulating dataframes in a way that will reduce the self-repetition, reduce the probability of making errors, and probably even save you some typing. As an added bonus, you might even find the dplyr grammar easier to read.

Here we’re going to cover commonly used functions as well as using pipes %>% to combine them.

Using select()

Use the select() function to keep only the variables (columns) you select.

dplyr::select(Keeling_Data_tbl,year,co2,quality)

## # A tibble: 767 x 3
##     year   co2 quality
##    <int> <dbl>   <int>
##  1  1958  316.       1
##  2  1958  317.       1
##  3  1958  318.       1
##  4  1958 -100.       0
##  5  1958  316.       1
##  6  1958  315.       1
##  7  1958  313.       1
##  8  1958 -100.       0
##  9  1958  313.       1
## 10  1958  315.       1
## # ... with 757 more rows

dplyr::select(Keeling_Data_tbl,co2)

## # A tibble: 767 x 1
##      co2
##    <dbl>
##  1  316.
##  2  317.
##  3  318.
##  4 -100.
##  5  316.
##  6  315.
##  7  313.
##  8 -100.
##  9  313.
## 10  315.
## # ... with 757 more rows

The pipe symbol %>%

Above we used ‘normal’ grammar, but the strengths of dplyr and tidyr lie in combining several functions using pipes. Since the pipes grammar is unlike anything we’ve seen in R before, let’s repeat what we’ve done above using pipes.

x %>% f(y) is the same as f(x, y)

Keeling_Data_tbl %>% 
  dplyr::select(year,co2,quality)

## # A tibble: 767 x 3
##     year   co2 quality
##    <int> <dbl>   <int>
##  1  1958  316.       1
##  2  1958  317.       1
##  3  1958  318.       1
##  4  1958 -100.       0
##  5  1958  316.       1
##  6  1958  315.       1
##  7  1958  313.       1
##  8  1958 -100.       0
##  9  1958  313.       1
## 10  1958  315.       1
## # ... with 757 more rows
…
If we now want to move forward with the above tibble, but only with quality == 1 , we can combine select() and filter() functions:

Keeling_Data_tbl %>% 
  dplyr::select(year,co2,quality) %>% 
  filter(quality == 1)

## # A tibble: 760 x 3
##     year   co2 quality
##    <int> <dbl>   <int>
##  1  1958  316.       1
##  2  1958  317.       1
##  3  1958  318.       1
##  4  1958  316.       1
##  5  1958  315.       1
##  6  1958  313.       1
##  7  1958  313.       1
##  8  1958  315.       1
##  9  1959  316.       1
## 10  1959  316.       1
## # ... with 750 more rows

You see here we have used the pipe twice, and the scripts become really clean and easy to follow.

Using group_by() and summarize()

Now try to group monthly data using the group_by() function, notice how the output tibble changes:

Keeling_Data_tbl %>% 
  dplyr::select(year,month,co2,quality) %>% 
  filter(quality == 1) %>% 
  group_by(month)

## # A tibble: 760 x 4
## # Groups:   month [12]
##     year month       co2 quality
##    <int> <chr>     <dbl>   <int>
##  1  1958 March      316.       1
##  2  1958 April      317.       1
##  3  1958 May        318.       1
##  4  1958 July       316.       1
##  5  1958 August     315.       1
##  6  1958 September  313.       1
##  7  1958 November   313.       1
##  8  1958 December   315.       1
##  9  1959 January    316.       1
## 10  1959 February   316.       1
## # ... with 750 more rows
…
Here we call the n() to get the size of a vector.

Using mutate()

We can also create new variables (columns) using the mutate() function. Here we create a new column co2_ppb by simply scaling co2 by a factor of 1000.

Keeling_Data_tbl %>% 
  mutate(co2_ppb = co2 * 1e3)

## # A tibble: 767 x 6
##     year month     decimal_date   co2 quality co2_ppb
##    <int> <chr>            <dbl> <dbl>   <int>   <dbl>
##  1  1958 March            1958.  316.       1  315700
##  2  1958 April            1958.  317.       1  317450
##  3  1958 May              1958.  318.       1  317510
##  4  1958 June             1958. -100.       0  -99990
##  5  1958 July             1959.  316.       1  315860
##  6  1958 August           1959.  315.       1  314930
##  7  1958 September        1959.  313.       1  313200
##  8  1958 October          1959. -100.       0  -99990
##  9  1958 November         1959.  313.       1  313330
## 10  1958 December         1959.  315.       1  314670
## # ... with 757 more rows

When creating new variables, we can hook this with a logical condition. A simple combination of mutate() and ifelse() facilitates filtering right where it is needed: in the moment of creating something new. This easy-to-read statement is a fast and powerful way of discarding certain data or for updating values depending on this given condition.

Let’s create a new variable co2_new, it is equal to co2 when quality==1, otherwise it’s NA:

Keeling_Data_tbl %>% 
  mutate(co2_ppb = co2 * 1e3, co2_new = ifelse(quality==1, co2, NA))

## # A tibble: 767 x 7
##     year month     decimal_date   co2 quality co2_ppb co2_new
##    <int> <chr>            <dbl> <dbl>   <int>   <dbl>   <dbl>
##  1  1958 March            1958.  316.       1  315700    316.
##  2  1958 April            1958.  317.       1  317450    317.
##  3  1958 May              1958.  318.       1  317510    318.
##  4  1958 June             1958. -100.       0  -99990     NA 
##  5  1958 July             1959.  316.       1  315860    316.
##  6  1958 August           1959.  315.       1  314930    315.
##  7  1958 September        1959.  313.       1  313200    313.
##  8  1958 October          1959. -100.       0  -99990     NA 
##  9  1958 November         1959.  313.       1  313330    313.
## 10  1958 December         1959.  315.       1  314670    315.
## # ... with 757 more rows
…
